996:
4.3
3.4
4.13
4.05
4.17
3.92
4.22
3.63
3.21
3.83
4.0
4.15
3.97
3.9
4.53
3.91
4.3
3.8
4.09
3.89
3.9
3.96
4.18
3.65
4.21
4.21
3.21
3.97
4.26
4.05
3.58
3.73
3.95
4.53
3.68
3.81
4.03
3.35
3.92
4.18
3.77
3.71
4.13
3.86
3.73
3.77
3.79
3.25
4.06
4.53
3.61
3.25
3.99
3.78
3.99
3.67
3.9
3.75
4.01
3.73
3.52
4.03
3.74
3.96
3.82
3.99
3.82
3.84
3.52
3.96
3.93
4.39
3.77
4.26
3.97
3.79
4.07
4.0
4.13
3.48
3.89
4.11
3.63
3.69
3.79
3.97
3.9
3.56
3.77
3.25
3.84
3.87
4.21
4.53
4.23
3.68
4.0
4.12
3.8
3.81
4.01
4.08
3.6
4.18
3.96
3.89
3.85
3.36
4.11
3.75
4.29
3.98
3.53
3.82
3.87
3.99
4.22
3.77
3.68
3.79
4.08
4.02
3.67
4.18
3.97
4.03
3.34
4.26
4.24
4.01
4.01
3.59
3.97
3.68
3.78
3.17
4.15
4.0
4.15
3.88
4.01
3.36
3.95
3.56
3.78
4.02
3.87
4.05
3.82
3.98
3.78
3.53
3.62
3.78
3.87
3.66
3.73
4.12
3.81
3.75
3.88
3.04
3.63
3.98
3.99
3.63
3.72
3.89
3.52
4.11
3.73
3.97
3.69
3.79
3.92
3.33
3.79
3.85
3.95
3.71
3.86
4.06
3.51
3.76
4.09
3.48
3.24
4.32
4.17
3.94
4.17
3.78
3.68
4.15
4.19
3.68
3.53
4.0
3.74
3.69
3.64
3.84
3.98
3.96
3.52
4.3
3.87
3.86
4.28
3.64
2.97
3.8
3.9
4.04
4.08
3.83
4.02
4.14
3.99
3.62
3.71
3.89
3.93
4.07
4.05
3.27
3.65
3.93
4.01
3.96
4.53
3.68
4.01
3.67
3.56
3.6
3.63
4.07
3.99
3.93
4.18
3.92
4.55
3.89
3.85
3.9
3.8
4.16
3.72
3.34
3.75
3.75
3.9
3.76
3.7
3.81
3.93
3.85
4.03
3.72
3.86
3.68
4.02
4.08
3.5
3.79
3.77
4.06
4.28
3.98
4.19
4.53
3.03
3.83
4.2
3.7
4.03
9960:
3.91
4.03
3.97
3.74
4.05
3.78
3.54
3.76
3.78
3.41
3.83
3.64
3.99
4.06
4.34
3.97
3.64
3.68
3.81
3.84
4.01
4.28
3.93
3.36
3.97
4.01
3.61
3.92
4.1
3.95
3.8
3.94
4.26
4.0
3.82
3.54
3.85
3.66
3.63
3.93
4.03
4.2
4.13
3.8
3.84
4.1
3.93
4.01
4.19
3.94
4.04
4.32
3.66
3.95
4.09
3.98
4.19
4.17
3.68
4.37
3.64
4.44
4.12
4.21
3.76
4.15
4.15
4.08
3.87
3.95
4.03
3.84
3.88
4.03
4.1
3.98
3.99
4.16
3.41
3.79
4.08
4.14
3.71
4.0
3.98
4.06
3.89
3.89
3.56
4.08
4.53
3.84
4.05
4.03
3.99
4.08
3.88
3.72
4.19
4.29
3.74
3.66
3.83
4.08
3.89
4.05
3.6
4.26
3.61
4.2
3.85
4.23
4.28
3.95
3.06
3.89
4.03
3.82
4.1
4.07
3.7
4.02
3.82
4.36
3.44
3.95
3.99
3.92
3.93
3.89
4.03
4.28
4.53
3.92
4.53
4.13
4.22
3.86
3.92
3.58
4.0
4.06
3.62
3.95
3.87
3.9
4.03
4.15
3.94
3.7
3.71
4.15
3.81
4.23
3.99
3.8
4.29
3.83
4.32
4.18
4.01
4.28
3.89
4.41
3.99
4.48
3.53
3.57
4.28
4.02
4.28
3.79
3.86
3.81
3.83
3.9
4.03
3.71
4.16
3.94
3.64
4.01
3.68
4.23
4.07
3.98
3.92
3.9
4.12
3.69
3.65
3.58
3.9
4.07
3.84
3.98
3.91
4.3
3.86
4.2
4.53
4.08
3.85
4.24
3.84
4.09
3.99
4.0
4.03
4.08
4.5
3.97
3.83
3.98
4.02
4.06
3.76
3.84
3.91
4.28
4.0
3.82
3.74
4.06
4.26
3.93
3.65
3.79
3.37
4.19
3.56
4.0
4.02
3.54
3.79
3.83
4.32
4.04
3.9
4.11
3.61
3.63
4.09
4.09
3.95
3.94
4.06
4.14
3.84
3.99
3.36
3.68
4.25
3.91
3.75
4.04
3.73
3.9
3.89
4.04
3.88
4.08
3.3
3.88
4.0
3.84
3.82
9961:
4.18
3.99
3.53
4.12
4.09
3.94
4.09
3.84
4.4
3.97
3.81
4.18
4.25
4.55
4.0
3.7
4.1
4.12
3.7
3.84
3.69
4.5
3.68
3.68
3.89
3.89
3.85
3.96
4.38
3.91
4.15
3.69
3.77
3.88
3.85
4.18
4.05
3.95
9962:
2.79
3.51
3.19
3.3
9963:
3.3
3.47
2.94
3.24
3.31
3.32
3.13
3.39
9964:
3.53
3.6
3.86
4.31
3.63
4.24
3.92
4.06
3.65
3.57
3.59
3.77
3.79
3.95
3.8
3.8
3.69
4.44
3.7
3.68
3.69
4.02
4.09
4.0
3.84
3.33
3.3
4.05
3.78
4.05
3.5
3.99
4.01
3.9
3.75
3.73
3.46
3.85
4.11
3.9
9965:
3.8
3.82
3.57
3.33
3.1
3.4
3.4
3.44
9966:
3.85
3.96
3.81
3.67
3.76
3.14
3.95
3.73
3.65
3.57
3.5
4.26
3.5
3.42
3.72
3.93
3.63
3.68
3.84
4.01
3.72
3.58
3.4
3.71
3.64
3.6
3.86
3.3
3.86
3.01
3.9
3.51
3.31
4.09
3.21
3.74
3.62
3.54
3.65
3.53
3.58
3.64
3.54
3.32
3.76
3.44
3.6
3.58
3.61
3.65
3.58
3.49
3.69
3.94
3.38
3.51
3.77
3.54
3.65
3.55
3.69
3.36
3.08
3.67
3.87
3.44
3.49
3.68
3.62
3.66
3.48
3.6
3.67
3.24
3.18
3.41
3.53
3.5
3.28
3.55
4.11
3.4
3.66
3.39
9967:
3.45
2.82
9968:
3.62
4.14
9969:
3.45
3.66
997:
3.68
3.42
3.35
3.85
3.22
3.31
3.32
3.71
4.11
3.26
9970:
3.83
3.83
3.41
3.98
3.88
3.99
3.74
3.89
3.97
3.65
3.81
3.72
3.59
4.16
3.66
3.9
4.37
3.95
3.74
3.77
3.75
3.73
3.61
3.9
4.05
4.19
3.73
3.68
3.66
3.72
3.72
3.87
3.98
4.44
3.92
3.76
3.52
3.34
3.76
4.08
9971:
3.17
3.56
3.78
3.62
9972:
3.42
3.31
3.07
3.27
3.82
2.86
2.95
3.37
3.41
3.63
3.51
3.38
3.3
9974:
3.65
3.31
3.54
3.41
3.65
3.46
3.3
3.64
3.45
3.75
3.28
3.29
3.79
3.32
3.34
3.44
3.55
9975:
2.83
2.21
3.02
2.34
2.82
2.56
2.7
2.05
9976:
3.81
3.53
3.47
3.62
3.95
3.65
3.83
3.51
3.81
3.65
3.86
3.66
3.77
4.02
3.28
3.8
3.54
3.79
4.13
3.46
3.68
3.72
3.62
3.71
3.56
3.78
3.68
4.09
3.67
3.69
9977:
3.66
3.57
3.22
3.42
3.53
3.25
3.23
3.49
3.24
3.47
3.58
3.26
3.52
3.38
3.56
3.54
3.45
3.66
3.45
9978:
3.11
3.18
3.19
3.0
3.1
9979:
4.11
4.12
3.74
4.13
4.2
998:
4.04
3.76
3.26
3.66
3.62
9980:
3.74
3.89
3.38
3.39
3.29
3.06
3.39
3.11
9981:
3.49
4.47
3.26
3.98
3.73
4.03
4.03
3.78
4.22
3.61
3.87
4.09
3.93
3.73
3.49
3.5
3.98
3.92
4.23
4.26
3.89
3.87
3.89
3.99
3.58
3.69
4.21
3.46
4.4
4.19
4.18
3.96
3.65
3.75
4.23
4.21
4.12
3.83
3.42
3.91
3.99
3.46
3.98
3.77
3.81
3.83
4.07
4.1
3.98
4.24
3.91
3.85
3.96
3.63
4.02
3.62
3.74
4.03
3.98
3.41
4.24
3.79
3.99
4.2
3.46
3.43
3.79
3.95
3.87
3.98
3.84
3.7
3.76
3.84
4.17
3.96
3.79
3.7
3.96
4.06
3.59
3.98
3.83
3.85
3.7
4.03
4.02
3.39
3.85
4.14
4.04
3.8
4.08
3.67
3.72
3.93
4.26
4.39
4.03
4.29
3.65
3.65
4.02
3.85
4.11
4.0
3.71
3.73
3.78
3.9
4.36
3.87
4.49
4.42
3.99
3.97
3.87
4.05
3.97
9982:
3.62
3.47
3.58
3.58
3.7
3.89
0.98
